%!PS-Adobe-3.0 EPSF-3.0
%%Title: gau2_max_qs.eps
%%Creator: Matplotlib v3.4.3, https://matplotlib.org/
%%CreationDate: Fri Nov 26 21:59:53 2021
%%Orientation: portrait
%%BoundingBox: -308 64 921 728
%%HiResBoundingBox: -308.520000 64.440000 920.520000 727.560000
%%EndComments
%%BeginProlog
/mpldict 11 dict def
mpldict begin
/_d { bind def } bind def
/m { moveto } _d
/l { lineto } _d
/r { rlineto } _d
/c { curveto } _d
/cl { closepath } _d
/ce { closepath eofill } _d
/box {
      m
      1 index 0 r
      0 exch r
      neg 0 r
      cl
    } _d
/clipbox {
      box
      clip
      newpath
    } _d
/sc { setcachedevice } _d
%!PS-Adobe-3.0 Resource-Font
%%Creator: Converted from TrueType to Type 3 by Matplotlib.
10 dict begin
/FontName /DejaVuSans def
/PaintType 0 def
/FontMatrix [0.00048828125 0 0 0.00048828125 0 0] def
/FontBBox [-2090 -948 3673 2524] def
/FontType 3 def
/Encoding [/period /zero /one /two /minus /four /three /six /five /eight] def
/CharStrings 11 dict dup begin
/.notdef 0 def
/period{651 0 219 0 430 254 sc
219 254 m
430 254 l
430 0 l
219 0 l
219 254 l

ce} _d
/zero{1303 0 135 -29 1167 1520 sc
651 1360 m
547 1360 469 1309 416 1206 c
364 1104 338 950 338 745 c
338 540 364 387 416 284 c
469 182 547 131 651 131 c
756 131 834 182 886 284 c
939 387 965 540 965 745 c
965 950 939 1104 886 1206 c
834 1309 756 1360 651 1360 c

651 1520 m
818 1520 946 1454 1034 1321 c
1123 1189 1167 997 1167 745 c
1167 494 1123 302 1034 169 c
946 37 818 -29 651 -29 c
484 -29 356 37 267 169 c
179 302 135 494 135 745 c
135 997 179 1189 267 1321 c
356 1454 484 1520 651 1520 c

ce} _d
/one{1303 0 225 0 1114 1493 sc
254 170 m
584 170 l
584 1309 l
225 1237 l
225 1421 l
582 1493 l
784 1493 l
784 170 l
1114 170 l
1114 0 l
254 0 l
254 170 l

ce} _d
/two{1303 0 150 0 1098 1520 sc
393 170 m
1098 170 l
1098 0 l
150 0 l
150 170 l
227 249 331 356 463 489 c
596 623 679 709 713 748 c
778 821 823 882 848 932 c
874 983 887 1032 887 1081 c
887 1160 859 1225 803 1275 c
748 1325 675 1350 586 1350 c
523 1350 456 1339 385 1317 c
315 1295 240 1262 160 1217 c
160 1421 l
241 1454 317 1478 388 1495 c
459 1512 523 1520 582 1520 c
737 1520 860 1481 952 1404 c
1044 1327 1090 1223 1090 1094 c
1090 1033 1078 974 1055 919 c
1032 864 991 800 930 725 c
913 706 860 650 771 557 c
682 465 556 336 393 170 c

ce} _d
/minus{1716 0 217 557 1499 727 sc
217 727 m
1499 727 l
1499 557 l
217 557 l
217 727 l

ce} _d
/four{1303 0 100 0 1188 1493 sc
774 1317 m
264 520 l
774 520 l
774 1317 l

721 1493 m
975 1493 l
975 520 l
1188 520 l
1188 352 l
975 352 l
975 0 l
774 0 l
774 352 l
100 352 l
100 547 l
721 1493 l

ce} _d
/three{1303 0 156 -29 1139 1520 sc
831 805 m
928 784 1003 741 1057 676 c
1112 611 1139 530 1139 434 c
1139 287 1088 173 987 92 c
886 11 742 -29 555 -29 c
492 -29 428 -23 361 -10 c
295 2 227 20 156 45 c
156 240 l
212 207 273 183 340 166 c
407 149 476 141 549 141 c
676 141 772 166 838 216 c
905 266 938 339 938 434 c
938 522 907 591 845 640 c
784 690 698 715 588 715 c
414 715 l
414 881 l
596 881 l
695 881 771 901 824 940 c
877 980 903 1037 903 1112 c
903 1189 876 1247 821 1288 c
767 1329 689 1350 588 1350 c
533 1350 473 1344 410 1332 c
347 1320 277 1301 201 1276 c
201 1456 l
278 1477 349 1493 416 1504 c
483 1515 547 1520 606 1520 c
759 1520 881 1485 970 1415 c
1059 1346 1104 1252 1104 1133 c
1104 1050 1080 980 1033 923 c
986 866 918 827 831 805 c

ce} _d
/six{1303 0 143 -29 1174 1520 sc
676 827 m
585 827 513 796 460 734 c
407 672 381 587 381 479 c
381 372 407 287 460 224 c
513 162 585 131 676 131 c
767 131 838 162 891 224 c
944 287 971 372 971 479 c
971 587 944 672 891 734 c
838 796 767 827 676 827 c

1077 1460 m
1077 1276 l
1026 1300 975 1318 923 1331 c
872 1344 821 1350 770 1350 c
637 1350 535 1305 464 1215 c
394 1125 354 989 344 807 c
383 865 433 909 492 940 c
551 971 617 987 688 987 c
838 987 956 941 1043 850 c
1130 759 1174 636 1174 479 c
1174 326 1129 203 1038 110 c
947 17 827 -29 676 -29 c
503 -29 371 37 280 169 c
189 302 143 494 143 745 c
143 981 199 1169 311 1309 c
423 1450 573 1520 762 1520 c
813 1520 864 1515 915 1505 c
967 1495 1021 1480 1077 1460 c

ce} _d
/five{1303 0 158 -29 1124 1493 sc
221 1493 m
1014 1493 l
1014 1323 l
406 1323 l
406 957 l
435 967 465 974 494 979 c
523 984 553 987 582 987 c
749 987 881 941 978 850 c
1075 759 1124 635 1124 479 c
1124 318 1074 193 974 104 c
874 15 733 -29 551 -29 c
488 -29 424 -24 359 -13 c
294 -2 227 14 158 35 c
158 238 l
218 205 280 181 344 165 c
408 149 476 141 547 141 c
662 141 754 171 821 232 c
888 293 922 375 922 479 c
922 583 888 665 821 726 c
754 787 662 817 547 817 c
493 817 439 811 385 799 c
332 787 277 768 221 743 c
221 1493 l

ce} _d
/eight{1303 0 139 -29 1163 1520 sc
651 709 m
555 709 479 683 424 632 c
369 581 342 510 342 420 c
342 330 369 259 424 208 c
479 157 555 131 651 131 c
747 131 823 157 878 208 c
933 260 961 331 961 420 c
961 510 933 581 878 632 c
823 683 748 709 651 709 c

449 795 m
362 816 295 857 246 916 c
198 975 174 1048 174 1133 c
174 1252 216 1347 301 1416 c
386 1485 503 1520 651 1520 c
800 1520 916 1485 1001 1416 c
1086 1347 1128 1252 1128 1133 c
1128 1048 1104 975 1055 916 c
1007 857 940 816 854 795 c
951 772 1027 728 1081 662 c
1136 596 1163 515 1163 420 c
1163 275 1119 164 1030 87 c
942 10 816 -29 651 -29 c
486 -29 360 10 271 87 c
183 164 139 275 139 420 c
139 515 166 596 221 662 c
276 728 352 772 449 795 c

375 1114 m
375 1037 399 976 447 933 c
496 890 564 868 651 868 c
738 868 805 890 854 933 c
903 976 928 1037 928 1114 c
928 1191 903 1252 854 1295 c
805 1338 738 1360 651 1360 c
564 1360 496 1338 447 1295 c
399 1252 375 1191 375 1114 c

ce} _d
end readonly def

/BuildGlyph {
 exch begin
 CharStrings exch
 2 copy known not {pop /.notdef} if
 true 3 1 roll get exec
 end
} _d

/BuildChar {
 1 index /Encoding get exch get
 1 index /BuildGlyph get exec
} _d

FontName currentdict end definefont pop
end
%%EndProlog
mpldict begin
-308.52 64.44 translate
1229.04 663.12 0 0 clipbox
gsave
0 0 m
1229.04 0 l
1229.04 663.12 l
0 663.12 l
cl
1.000 setgray
fill
grestore
gsave
153.63 72.9432 m
1106.136 72.9432 l
1106.136 583.5456 l
153.63 583.5456 l
cl
1.000 setgray
fill
grestore
0.800 setlinewidth
1 setlinejoin
0 setlinecap
[] 0 setdash
0.000 setgray
gsave
/o {
gsave
newpath
translate
0.8 setlinewidth
1 setlinejoin

0 setlinecap

0 0 m
0 -3.5 l

gsave
0.000 setgray
fill
grestore
stroke
grestore
} bind def
196.926 72.9432 o
grestore
/DejaVuSans 10.000 selectfont
gsave

193.746040 58.349450 translate
0.000000 rotate
0.000000 0 m /zero glyphshow
grestore
gsave
/o {
gsave
newpath
translate
0.8 setlinewidth
1 setlinejoin

0 setlinecap

0 0 m
0 -3.5 l

gsave
0.000 setgray
fill
grestore
stroke
grestore
} bind def
370.126 72.9432 o
grestore
gsave

357.407206 58.349450 translate
0.000000 rotate
0.000000 0 m /two glyphshow
6.362305 0 m /zero glyphshow
12.724609 0 m /zero glyphshow
19.086914 0 m /zero glyphshow
grestore
gsave
/o {
gsave
newpath
translate
0.8 setlinewidth
1 setlinejoin

0 setlinecap

0 0 m
0 -3.5 l

gsave
0.000 setgray
fill
grestore
stroke
grestore
} bind def
543.326 72.9432 o
grestore
gsave

530.607436 58.349450 translate
0.000000 rotate
0.000000 0 m /four glyphshow
6.362305 0 m /zero glyphshow
12.724609 0 m /zero glyphshow
19.086914 0 m /zero glyphshow
grestore
gsave
/o {
gsave
newpath
translate
0.8 setlinewidth
1 setlinejoin

0 setlinecap

0 0 m
0 -3.5 l

gsave
0.000 setgray
fill
grestore
stroke
grestore
} bind def
716.526 72.9432 o
grestore
gsave

703.807665 58.349450 translate
0.000000 rotate
0.000000 0 m /six glyphshow
6.362305 0 m /zero glyphshow
12.724609 0 m /zero glyphshow
19.086914 0 m /zero glyphshow
grestore
gsave
/o {
gsave
newpath
translate
0.8 setlinewidth
1 setlinejoin

0 setlinecap

0 0 m
0 -3.5 l

gsave
0.000 setgray
fill
grestore
stroke
grestore
} bind def
889.727 72.9432 o
grestore
gsave

877.007894 58.349450 translate
0.000000 rotate
0.000000 0 m /eight glyphshow
6.362305 0 m /zero glyphshow
12.724609 0 m /zero glyphshow
19.086914 0 m /zero glyphshow
grestore
gsave
/o {
gsave
newpath
translate
0.8 setlinewidth
1 setlinejoin

0 setlinecap

0 0 m
0 -3.5 l

gsave
0.000 setgray
fill
grestore
stroke
grestore
} bind def
1062.93 72.9432 o
grestore
gsave

1047.028435 58.349450 translate
0.000000 rotate
0.000000 0 m /one glyphshow
6.362305 0 m /zero glyphshow
12.724609 0 m /zero glyphshow
19.086914 0 m /zero glyphshow
25.449219 0 m /zero glyphshow
grestore
gsave
/o {
gsave
newpath
translate
0.8 setlinewidth
1 setlinejoin

0 setlinecap

-0 0 m
-3.5 0 l

gsave
0.000 setgray
fill
grestore
stroke
grestore
} bind def
153.63 109.109 o
grestore
gsave

122.348750 105.312196 translate
0.000000 rotate
0.000000 0 m /minus glyphshow
8.378906 0 m /three glyphshow
14.741211 0 m /period glyphshow
17.919922 0 m /zero glyphshow
grestore
gsave
/o {
gsave
newpath
translate
0.8 setlinewidth
1 setlinejoin

0 setlinecap

-0 0 m
-3.5 0 l

gsave
0.000 setgray
fill
grestore
stroke
grestore
} bind def
153.63 175.928 o
grestore
gsave

122.348750 172.131226 translate
0.000000 rotate
0.000000 0 m /minus glyphshow
8.378906 0 m /two glyphshow
14.741211 0 m /period glyphshow
17.919922 0 m /five glyphshow
grestore
gsave
/o {
gsave
newpath
translate
0.8 setlinewidth
1 setlinejoin

0 setlinecap

-0 0 m
-3.5 0 l

gsave
0.000 setgray
fill
grestore
stroke
grestore
} bind def
153.63 242.747 o
grestore
gsave

122.348750 238.950257 translate
0.000000 rotate
0.000000 0 m /minus glyphshow
8.378906 0 m /two glyphshow
14.741211 0 m /period glyphshow
17.919922 0 m /zero glyphshow
grestore
gsave
/o {
gsave
newpath
translate
0.8 setlinewidth
1 setlinejoin

0 setlinecap

-0 0 m
-3.5 0 l

gsave
0.000 setgray
fill
grestore
stroke
grestore
} bind def
153.63 309.566 o
grestore
gsave

122.348750 305.769287 translate
0.000000 rotate
0.000000 0 m /minus glyphshow
8.378906 0 m /one glyphshow
14.741211 0 m /period glyphshow
17.919922 0 m /five glyphshow
grestore
gsave
/o {
gsave
newpath
translate
0.8 setlinewidth
1 setlinejoin

0 setlinecap

-0 0 m
-3.5 0 l

gsave
0.000 setgray
fill
grestore
stroke
grestore
} bind def
153.63 376.385 o
grestore
gsave

122.348750 372.588318 translate
0.000000 rotate
0.000000 0 m /minus glyphshow
8.378906 0 m /one glyphshow
14.741211 0 m /period glyphshow
17.919922 0 m /zero glyphshow
grestore
gsave
/o {
gsave
newpath
translate
0.8 setlinewidth
1 setlinejoin

0 setlinecap

-0 0 m
-3.5 0 l

gsave
0.000 setgray
fill
grestore
stroke
grestore
} bind def
153.63 443.204 o
grestore
gsave

122.348750 439.407348 translate
0.000000 rotate
0.000000 0 m /minus glyphshow
8.378906 0 m /zero glyphshow
14.741211 0 m /period glyphshow
17.919922 0 m /five glyphshow
grestore
gsave
/o {
gsave
newpath
translate
0.8 setlinewidth
1 setlinejoin

0 setlinecap

-0 0 m
-3.5 0 l

gsave
0.000 setgray
fill
grestore
stroke
grestore
} bind def
153.63 510.023 o
grestore
gsave

130.723750 506.226379 translate
0.000000 rotate
0.000000 0 m /zero glyphshow
6.362305 0 m /period glyphshow
9.541016 0 m /zero glyphshow
grestore
gsave
/o {
gsave
newpath
translate
0.8 setlinewidth
1 setlinejoin

0 setlinecap

-0 0 m
-3.5 0 l

gsave
0.000 setgray
fill
grestore
stroke
grestore
} bind def
153.63 576.842 o
grestore
gsave

130.723750 573.045409 translate
0.000000 rotate
0.000000 0 m /zero glyphshow
6.362305 0 m /period glyphshow
9.541016 0 m /five glyphshow
grestore
1.500 setlinewidth
2 setlinecap
0.122 0.467 0.706 setrgbcolor
gsave
952.506 510.602 153.63 72.943 clipbox
196.925727 536.750866 m
1062.840273 536.750866 l
1062.840273 536.750866 l
stroke
grestore
1.000 0.498 0.055 setrgbcolor
gsave
952.506 510.602 153.63 72.943 clipbox
196.925727 516.743106 m
197.012327 517.538191 l
197.098928 517.490195 l
197.272128 516.820121 l
198.311329 495.629064 l
198.83093 477.510116 l
199.09073 471.111326 l
199.610331 452.915261 l
199.870131 444.558129 l
201.515533 379.094572 l
201.861934 366.044983 l
202.814535 330.153394 l
203.680536 298.451052 l
203.940337 289.109557 l
204.373337 275.959829 l
204.892938 259.206032 l
205.239338 246.714011 l
206.018739 220.701971 l
207.057941 190.070624 l
207.490941 179.221128 l
209.049743 146.265541 l
209.309544 141.613723 l
209.915744 129.450709 l
210.521945 120.558132 l
210.781746 116.537661 l
210.954946 114.656488 l
211.387946 108.754967 l
211.474547 108.200774 l
211.734347 105.28374 l
211.820947 105.043475 l
211.994147 103.992075 l
212.253948 101.997564 l
212.773548 98.384654 l
213.033349 97.807607 l
213.119949 98.301657 l
213.293149 97.370711 l
213.379749 97.518427 l
213.552949 97.75297 l
213.726149 97.202547 l
213.81275 97.611395 l
214.07255 96.335697 l
214.24575 96.652115 l
214.33235 96.40063 l
214.41895 96.722747 l
214.505551 96.650923 l
214.592151 96.376146 l
214.678751 96.794991 l
214.765351 96.544975 l
214.851951 96.586114 l
214.938551 96.730278 l
215.111751 96.168955 l
215.198351 96.1524 l
215.284952 96.348255 l
215.544752 97.612588 l
215.977752 100.043591 l
216.064353 99.989819 l
216.324153 100.778148 l
216.410753 100.60034 l
216.583953 101.73882 l
216.757154 102.430567 l
218.575756 112.212803 l
218.835556 114.408491 l
218.922156 114.436369 l
219.095357 114.957716 l
219.441757 117.699675 l
219.614957 118.662374 l
222.905762 145.472545 l
223.858363 153.596527 l
224.118163 155.733015 l
224.897564 162.214417 l
225.243965 166.051008 l
227.408968 183.653853 l
227.755368 186.669841 l
230.006971 205.08746 l
230.353371 207.682654 l
230.872972 211.918826 l
233.644176 231.307649 l
234.077176 233.711014 l
234.596777 236.853369 l
237.367981 253.297289 l
238.840183 260.601185 l
239.532984 264.362116 l
239.792784 265.306477 l
240.831985 270.645959 l
241.091786 271.918126 l
241.524786 273.986551 l
241.957787 275.836956 l
242.304187 277.334474 l
242.563988 278.323677 l
243.256789 280.91495 l
245.248591 289.413821 l
245.508392 290.525973 l
246.720793 295.62415 l
246.893993 296.105697 l
249.924997 308.721262 l
250.098198 309.338016 l
250.531198 310.977069 l
250.704398 311.504538 l
250.964199 312.420918 l
254.255003 323.688281 l
254.428203 324.304022 l
256.333406 330.623389 l
256.506606 331.128607 l
256.853007 332.193234 l
257.459207 333.775998 l
257.892208 335.203625 l
259.10461 339.252188 l
259.27781 339.702222 l
259.45101 340.07968 l
260.057211 341.760093 l
260.230411 342.249739 l
263.348015 350.683627 l
264.387217 353.066246 l
265.080017 354.639982 l
265.166618 354.739739 l
265.599618 355.877955 l
268.717222 362.496874 l
268.977023 363.026567 l
269.583223 364.402572 l
270.622425 366.540072 l
271.488426 368.546251 l
271.661626 368.820793 l
271.921426 369.414685 l
272.181227 369.892735 l
272.354427 370.377615 l
272.874028 371.589756 l
274.34623 374.867894 l
274.86583 375.966146 l
275.558631 377.541967 l
275.818432 378.04781 l
275.991632 378.308802 l
276.251432 378.94151 l
276.424632 379.080115 l
277.290634 380.876931 l
277.463834 381.265345 l
278.329835 382.986626 l
278.589635 383.391375 l
279.802037 385.634097 l
280.408238 386.614594 l
280.668038 387.103811 l
280.927838 387.32816 l
281.360839 388.221102 l
281.707239 388.795624 l
282.05364 389.378176 l
282.573241 390.438299 l
283.006241 391.300922 l
283.266041 391.755951 l
283.872242 392.7751 l
284.998044 394.479617 l
285.864045 396.048589 l
287.509447 398.641398 l
287.769247 399.083387 l
287.942448 399.42409 l
288.288848 399.845288 l
294.091056 408.776479 l
294.350856 409.131201 l
295.909658 411.210186 l
296.256059 411.609264 l
296.515859 411.98876 l
297.12206 412.884951 l
301.365465 418.826594 l
306.648072 425.795909 l
306.907873 426.136451 l
307.340873 426.76053 l
308.120274 427.785402 l
308.813075 428.602936 l
309.505876 429.555056 l
309.852277 429.878545 l
310.285277 430.484461 l
310.545078 430.757886 l
311.844079 432.17356 l
312.01728 432.317475 l
312.53688 432.897038 l
312.796681 433.166213 l
313.229681 433.619303 l
313.489481 433.839202 l
314.615283 435.091544 l
315.394684 435.968217 l
316.000885 436.590273 l
319.118489 439.730584 l
319.378289 439.961808 l
325.180497 445.832324 l
326.133098 446.820247 l
326.912499 447.474417 l
327.3455 447.970318 l
331.848706 451.788322 l
332.108506 451.985261 l
334.70651 454.239375 l
334.87971 454.334722 l
335.918911 455.246551 l
336.438512 455.623855 l
337.131313 456.264566 l
339.296316 457.589871 l
339.642716 457.828517 l
340.508717 458.461666 l
341.028318 458.885027 l
341.374718 459.033295 l
341.807719 459.330505 l
343.193321 460.348799 l
344.578923 461.459064 l
345.531524 462.427968 l
346.397525 463.053093 l
346.830526 463.383163 l
347.263526 463.673254 l
349.082129 464.956049 l
349.515129 465.335666 l
352.372933 467.117658 l
352.892534 467.481346 l
353.238934 467.728159 l
353.585335 467.82799 l
354.970936 468.694547 l
355.577137 469.056591 l
356.962739 469.858349 l
357.309139 470.0836 l
357.65554 470.447269 l
358.08854 470.763584 l
359.214342 471.6314 l
360.080343 471.987356 l
360.426744 472.153888 l
360.773144 472.374291 l
361.725745 473.123411 l
362.418546 473.437717 l
363.024747 473.868764 l
363.284547 474.080294 l
363.890748 474.401923 l
364.670149 474.849309 l
366.488752 475.851865 l
367.441353 476.454047 l
368.653754 477.101068 l
368.826955 477.156684 l
369.346555 477.315764 l
370.125956 477.84639 l
370.385757 477.98507 l
370.991958 478.305552 l
371.165158 478.349162 l
371.511558 478.634418 l
372.031159 478.888647 l
373.503361 479.768957 l
373.936361 480.080859 l
379.911769 482.75815 l
380.51797 483.005777 l
381.124171 483.309 l
381.816972 483.597711 l
386.579978 485.728561 l
386.926379 485.893783 l
387.87898 486.246777 l
388.13878 486.347456 l
388.658381 486.478711 l
389.004781 486.612897 l
389.351182 486.769152 l
390.563583 487.272973 l
390.736784 487.320475 l
391.342984 487.684846 l
392.555386 488.245184 l
392.901787 488.347866 l
393.334787 488.590601 l
394.287388 488.970008 l
394.633789 489.09087 l
396.798792 490.001564 l
397.145192 490.219075 l
399.396795 491.29465 l
400.782397 491.824083 l
401.908198 492.341968 l
407.623806 494.586296 l
407.970206 494.671323 l
408.576407 494.938072 l
409.009408 495.04431 l
409.269208 495.162457 l
410.91461 495.643148 l
411.434211 495.798606 l
414.551815 496.830273 l
415.677617 497.298503 l
416.716818 497.649936 l
417.669419 497.923388 l
418.53542 498.224781 l
418.968421 498.396183 l
419.747822 498.631266 l
420.180823 498.755899 l
423.558227 499.906518 l
424.424228 500.200493 l
425.98303 500.599746 l
426.675831 500.882694 l
427.628432 501.117462 l
431.698638 502.300178 l
433.25744 502.678029 l
433.51724 502.739372 l
434.296641 502.898444 l
434.729642 503.03713 l
434.989442 503.063458 l
436.808045 503.650746 l
437.760646 503.916527 l
440.79165 504.794121 l
441.311251 504.860831 l
441.744251 504.979674 l
444.342255 505.832556 l
445.208256 505.979145 l
450.923863 507.159612 l
451.270264 507.255372 l
452.222865 507.524833 l
452.569265 507.61144 l
454.128068 507.929426 l
454.647668 508.103689 l
455.513669 508.354363 l
456.552871 508.707998 l
461.662277 509.498127 l
462.181878 509.723311 l
462.874679 509.875882 l
463.65408 510.168414 l
465.905683 510.666057 l
466.338684 510.769708 l
466.944884 510.918876 l
469.629488 511.579069 l
470.062489 511.723424 l
470.84189 511.797155 l
471.534691 511.905932 l
472.314092 512.133921 l
474.305894 512.491216 l
476.470897 513.007215 l
476.817298 513.040597 l
477.077098 513.132965 l
477.510098 513.209923 l
478.029699 513.329014 l
479.0689 513.534884 l
480.454502 513.925467 l
481.493704 514.162988 l
481.753504 514.179142 l
483.139106 514.451027 l
483.831907 514.58256 l
484.784508 514.744246 l
485.130909 514.776217 l
485.737109 514.799404 l
486.949511 515.091251 l
488.075312 515.233864 l
488.508313 515.402743 l
489.287714 515.549275 l
490.067115 515.698865 l
490.933116 515.854493 l
491.192917 515.882868 l
494.830121 516.519853 l
495.609522 516.700975 l
496.129123 516.705928 l
496.648724 516.781689 l
497.081724 516.810656 l
497.687925 516.866328 l
511.803744 519.595434 l
512.236744 519.579812 l
512.669745 519.649446 l
513.016145 519.689392 l
513.622346 519.749936 l
514.748148 519.865219 l
519.684354 520.739835 l
520.030755 520.760653 l
520.550355 520.866252 l
520.723556 520.835943 l
521.589557 520.915401 l
540.208581 523.719404 l
541.074583 523.888277 l
542.286984 524.056705 l
542.806585 524.120072 l
544.625187 524.398535 l
545.317988 524.483804 l
550.254195 525.011251 l
552.419198 525.426184 l
552.765598 525.424077 l
553.458399 525.531913 l
556.056402 525.819719 l
556.316203 525.810787 l
556.749203 525.847451 l
557.355404 525.936579 l
558.481206 526.062102 l
561.94521 526.515175 l
562.378211 526.532898 l
565.149414 526.975969 l
566.015416 527.160607 l
567.487617 527.381089 l
568.440219 527.46705 l
572.250624 527.90536 l
572.770224 527.923284 l
573.289825 528.004326 l
577.793031 528.505406 l
578.399232 528.607273 l
581.257036 529.082506 l
581.863236 529.110938 l
583.508639 529.250127 l
584.028239 529.365688 l
584.63444 529.479647 l
586.712843 529.796195 l
587.059243 529.864193 l
595.546055 530.917315 l
595.805855 530.996497 l
596.498656 531.073678 l
597.537857 531.122049 l
599.61626 531.268376 l
600.742061 531.434435 l
601.261662 531.491834 l
602.387464 531.605222 l
603.426665 531.712002 l
609.835073 532.350831 l
610.527874 532.410982 l
611.567076 532.54379 l
612.519677 532.578269 l
612.952678 532.622689 l
615.983682 532.797574 l
616.416682 532.826541 l
617.282683 532.920777 l
618.062084 532.966865 l
618.581685 532.991984 l
619.187886 533.020266 l
620.140487 533.073776 l
621.699289 533.305371 l
623.084891 533.420455 l
624.037492 533.50231 l
625.769495 533.646812 l
626.202495 533.692627 l
626.981896 533.704428 l
630.965501 534.054773 l
631.744902 534.104239 l
635.122307 534.335812 l
635.988308 534.365055 l
637.980111 534.542889 l
639.192512 534.640736 l
642.396717 534.874969 l
643.955519 534.985665 l
644.90812 535.098497 l
648.198924 535.374092 l
648.805125 535.440743 l
651.143328 535.66545 l
651.749529 535.734372 l
652.70213 535.818398 l
654.087732 535.926473 l
655.733134 535.984608 l
660.49614 536.33467 l
660.842541 536.351644 l
661.708542 536.410149 l
667.077749 536.813431 l
667.59735 536.826116 l
668.203551 536.849045 l
678.162564 537.374956 l
678.941965 537.380557 l
680.327567 537.502389 l
683.964772 537.660749 l
685.003973 537.726604 l
685.783374 537.754022 l
686.476175 537.823809 l
687.255576 537.871063 l
688.121577 537.883949 l
695.569187 538.276 l
696.348588 538.305527 l
697.214589 538.353127 l
704.315798 538.701496 l
705.2684 538.735627 l
706.307601 538.738333 l
708.905605 538.954333 l
710.031406 539.013701 l
711.503608 539.10496 l
715.660413 539.402422 l
716.180014 539.443632 l
722.761623 539.749801 l
726.572028 539.999427 l
727.351429 540.018902 l
730.642233 540.288566 l
734.625839 540.438322 l
735.83824 540.530432 l
736.617641 540.557978 l
737.916643 540.663653 l
738.782644 540.678178 l
739.562045 540.700165 l
761.558474 541.750233 l
762.164675 541.761185 l
763.290476 541.823236 l
764.156478 541.839245 l
765.022479 541.880552 l
765.88848 541.9093 l
768.053483 541.988511 l
769.265884 542.088768 l
770.911287 542.183755 l
773.942291 542.274581 l
777.492895 542.465276 l
779.398098 542.493615 l
779.917698 542.50014 l
789.183911 542.823453 l
790.482912 542.871052 l
791.262313 542.877364 l
792.821116 542.966083 l
793.600517 542.9688 l
795.93872 543.037404 l
797.064521 543.052068 l
797.930522 543.085127 l
803.38633 543.291902 l
805.204932 543.360696 l
811.00714 543.503614 l
812.046341 543.53748 l
812.825742 543.556295 l
814.384544 543.663095 l
816.289747 543.683566 l
820.792953 543.813524 l
825.382759 543.922236 l
826.07556 543.932842 l
826.854961 543.911733 l
827.980762 543.944292 l
829.539564 544.016985 l
830.665366 544.108236 l
831.964367 544.116329 l
832.830368 544.104055 l
834.995371 544.168292 l
835.774772 544.207464 l
843.395582 544.370689 l
844.434784 544.435623 l
845.214185 544.441041 l
845.993586 544.461991 l
847.292588 544.523121 l
849.28439 544.637531 l
850.063791 544.631656 l
855.519598 544.768698 l
856.125799 544.780796 l
858.117602 544.838958 l
858.550602 544.817406 l
862.274407 545.016711 l
863.746609 545.022636 l
866.258013 545.101958 l
867.124014 545.106365 l
869.722017 545.190363 l
882.365634 545.386744 l
883.058435 545.372508 l
886.78224 545.362243 l
891.285446 545.370818 l
897.780454 545.485442 l
898.386655 545.510813 l
900.118657 545.628854 l
900.898059 545.639181 l
902.630061 545.67861 l
905.141464 545.805777 l
906.007465 545.850362 l
906.700266 545.905921 l
907.046667 545.977634 l
913.022075 546.231253 l
914.667477 546.283276 l
915.360278 546.307045 l
920.902685 546.399621 l
921.508886 546.406113 l
923.154288 546.425948 l
924.193489 546.44772 l
924.79969 546.452076 l
928.436895 546.599606 l
929.389496 546.629398 l
930.168897 546.641326 l
931.208099 546.689099 l
934.239103 546.773312 l
937.270107 546.862734 l
939.52171 546.96855 l
940.734111 546.997296 l
941.340312 547.056537 l
943.332115 547.095498 l
948.181721 547.258563 l
948.961122 547.294741 l
951.212725 547.345275 l
953.810729 547.400488 l
1022.571219 548.566791 l
1023.523821 548.584823 l
1062.840273 549.145866 l
1062.840273 549.145866 l
stroke
grestore
0.173 0.627 0.173 setrgbcolor
gsave
952.506 510.602 153.63 72.943 clipbox
196.925727 519.262714 m
197.098928 524.085674 l
197.185528 523.762766 l
197.531928 516.538213 l
198.74433 476.5008 l
198.83093 475.087709 l
199.35053 453.531105 l
199.523731 446.986452 l
199.783531 439.365299 l
200.043331 432.699551 l
200.562932 420.19051 l
201.255733 408.882427 l
201.515533 404.567091 l
201.602133 404.21816 l
202.121734 395.280292 l
202.294934 393.596638 l
202.554735 388.608869 l
202.641335 388.650111 l
202.814535 385.411429 l
203.074335 381.008365 l
203.680536 377.113915 l
204.026937 371.946088 l
204.286737 370.463128 l
204.459937 368.265539 l
204.892938 365.11932 l
204.979538 365.387136 l
205.066138 365.39147 l
205.152738 365.694384 l
205.239338 365.345687 l
205.325938 366.386884 l
205.499139 365.662572 l
205.672339 365.677057 l
205.758939 365.680771 l
206.53834 368.904933 l
206.62494 368.832918 l
207.404341 373.233448 l
207.577541 373.87544 l
207.750742 375.64765 l
207.837342 375.624474 l
208.270342 380.896417 l
208.443543 381.958329 l
208.530143 382.08787 l
208.963143 385.514282 l
209.222944 388.415397 l
209.482744 390.638713 l
210.088945 395.774775 l
210.521945 402.676744 l
210.781746 405.392697 l
211.214746 411.580352 l
211.820947 418.341557 l
211.994147 419.06213 l
212.340548 423.301998 l
212.860148 428.933225 l
213.466349 435.167586 l
214.07255 441.941757 l
214.938551 449.224206 l
215.371552 453.478659 l
215.804552 456.625782 l
215.977752 457.760308 l
216.757154 464.345231 l
216.930354 465.297767 l
217.796355 471.476386 l
217.882955 471.504469 l
219.701557 482.051964 l
219.961358 483.437015 l
220.221158 485.171879 l
221.000559 489.91784 l
221.087159 490.137092 l
221.52016 492.490466 l
221.77996 493.763563 l
221.95316 494.732364 l
222.126361 495.113043 l
222.386161 496.319198 l
222.732561 498.141621 l
223.078962 499.884517 l
223.944963 503.770848 l
224.031563 504.002219 l
224.464564 506.179503 l
225.590365 510.257475 l
225.850166 511.310477 l
225.936766 511.515563 l
226.196566 512.844808 l
226.369766 513.07833 l
226.542966 513.579571 l
226.802767 514.160377 l
227.235767 515.519795 l
227.322367 515.669239 l
227.668768 517.153385 l
228.621369 519.1497 l
228.707969 519.302475 l
229.05437 520.528447 l
229.14097 520.595135 l
229.48737 521.427539 l
230.006971 522.464981 l
230.353371 522.939554 l
230.439972 522.966647 l
230.613172 523.384825 l
230.699772 523.351308 l
231.652373 525.502268 l
231.738973 525.430796 l
231.912174 525.546464 l
231.998774 525.661314 l
232.085374 525.571817 l
233.557576 528.695041 l
233.644176 528.795728 l
233.817376 529.089434 l
234.077176 529.135061 l
234.163777 529.053487 l
234.336977 529.339484 l
234.769977 530.200436 l
234.856577 530.244627 l
235.116378 530.557779 l
235.289578 530.804974 l
235.462778 531.004321 l
235.635978 531.038785 l
235.895779 531.653385 l
236.41538 532.049067 l
236.67518 532.460356 l
236.76178 532.33542 l
237.541181 533.260147 l
239.099983 535.065373 l
239.273183 535.033159 l
240.052584 536.145791 l
240.225785 536.381734 l
240.398985 536.562638 l
240.658785 536.833426 l
240.831985 536.812965 l
241.351586 537.627442 l
241.697986 537.987704 l
241.784587 538.24967 l
241.871187 538.181202 l
242.044387 538.347956 l
242.304187 538.630593 l
242.477388 538.553353 l
242.737188 539.075381 l
243.603189 539.541151 l
243.689789 539.456152 l
243.949589 539.799168 l
244.12279 539.945175 l
244.29599 540.074562 l
244.55579 540.468706 l
245.248591 540.572981 l
245.335191 540.801698 l
245.421791 540.743697 l
246.027992 541.60855 l
246.374393 541.85381 l
246.634193 542.380408 l
247.586794 542.782335 l
247.673394 542.782571 l
247.846595 542.986692 l
248.019795 542.906192 l
248.452795 543.132037 l
248.799196 543.229788 l
248.885796 543.094478 l
248.972396 543.164269 l
249.751797 543.289765 l
250.444598 544.098678 l
250.964199 544.517973 l
251.137399 544.591005 l
251.310599 544.489849 l
251.5704 544.744587 l
252.696201 545.125251 l
253.215802 545.461755 l
253.389002 545.498883 l
254.255003 546.051023 l
254.601404 546.43811 l
254.688004 546.423361 l
254.947804 546.663094 l
256.333406 547.23352 l
256.506606 547.349696 l
256.853007 547.42869 l
257.632408 547.891116 l
257.978808 547.973048 l
258.758209 548.21039 l
259.018009 548.375099 l
259.19121 548.362555 l
259.45101 548.526702 l
259.970611 548.545713 l
260.317011 548.843867 l
260.750012 548.87536 l
261.096412 548.976254 l
261.442813 549.275713 l
261.962413 549.113566 l
262.135614 549.278487 l
262.395414 549.186548 l
262.741814 549.474167 l
262.915015 549.593971 l
263.174815 549.832866 l
263.348015 549.85941 l
263.694416 549.928918 l
264.127416 550.12952 l
264.473817 550.176452 l
265.080017 550.409615 l
265.339818 550.510468 l
265.686218 550.730024 l
265.859418 550.804944 l
266.032619 550.853144 l
266.638819 551.029559 l
266.72542 551.091276 l
266.89862 551.00394 l
267.504821 551.012974 l
267.678021 551.193737 l
267.764621 551.067886 l
267.937821 551.203912 l
269.063623 551.432387 l
270.016224 551.990058 l
270.449225 552.134684 l
270.709025 552.224972 l
270.795625 552.184108 l
270.968825 552.262201 l
271.142025 552.22341 l
271.748226 552.074121 l
272.354427 552.468773 l
272.527627 552.551782 l
272.874028 552.5848 l
273.133828 552.675647 l
273.393628 552.899554 l
273.566829 552.93062 l
273.913229 553.070328 l
274.25963 553.014201 l
274.43283 553.032995 l
274.69263 553.151863 l
275.039031 553.225421 l
275.558631 553.286847 l
275.731832 553.301196 l
276.251432 553.136467 l
276.597833 553.07901 l
276.857633 553.11023 l
277.030833 553.164788 l
277.377234 553.280043 l
278.329835 553.369719 l
278.676235 553.332641 l
278.849436 553.433199 l
279.109236 553.62382 l
279.369036 553.612507 l
279.715437 553.790574 l
279.888637 553.696405 l
280.061837 553.773986 l
280.494838 553.966162 l
281.014439 554.149976 l
281.534039 554.27355 l
282.659841 554.438143 l
283.006241 554.49359 l
283.612442 554.431357 l
284.045443 554.714724 l
284.305243 554.81222 l
284.565043 554.81499 l
284.824844 554.848379 l
285.084644 554.98487 l
285.950645 555.32383 l
286.123845 555.411381 l
287.163047 555.689125 l
287.336247 555.709715 l
287.596047 555.823766 l
287.855848 555.749242 l
288.202248 555.689575 l
288.462048 555.702745 l
289.41465 555.456095 l
290.107451 555.723988 l
290.280651 555.624255 l
290.627051 555.714745 l
290.800251 555.644533 l
291.060052 555.718216 l
291.579652 555.61678 l
292.012653 555.663523 l
292.359054 555.628943 l
292.705454 555.674722 l
292.965254 555.82481 l
293.225055 555.800185 l
293.484855 556.088749 l
294.783857 556.204893 l
295.043657 556.181616 l
295.563258 556.226527 l
296.256059 556.262324 l
296.515859 556.340839 l
298.074661 556.684698 l
298.247861 556.68307 l
298.680862 556.787405 l
298.940662 556.805029 l
299.460263 557.00738 l
299.893263 557.031903 l
300.153064 557.047473 l
300.239664 557.164451 l
300.412864 557.162599 l
300.586064 557.247464 l
301.625266 557.35933 l
301.798466 557.270084 l
302.144866 557.453067 l
302.577867 557.506273 l
302.837667 557.370363 l
303.097468 557.439354 l
303.876869 557.30662 l
304.48307 557.444781 l
304.91607 557.573765 l
305.17587 557.496349 l
305.435671 557.401601 l
306.561472 557.629362 l
306.821273 557.691547 l
307.254273 557.642248 l
307.514074 557.768092 l
308.206874 557.855273 l
309.159476 558.044778 l
309.332676 558.049902 l
309.938877 558.152399 l
310.371877 558.038955 l
310.718278 558.025099 l
310.978078 558.051626 l
311.237878 558.159717 l
311.584279 558.119225 l
311.844079 558.088943 l
312.10388 557.973603 l
312.45028 558.054857 l
312.796681 558.062851 l
313.229681 558.143176 l
314.268882 558.097903 l
314.615283 558.078533 l
315.134884 558.134927 l
315.481284 558.142066 l
315.654484 558.264379 l
315.827685 558.243076 l
316.000885 558.25846 l
316.347285 558.178656 l
317.040086 558.111119 l
317.386487 558.051569 l
317.559687 558.021014 l
319.291689 558.375115 l
319.464889 558.425802 l
319.72469 558.336191 l
319.98449 558.497954 l
321.110292 558.379493 l
321.370092 558.367106 l
324.141296 558.391727 l
324.314496 558.408984 l
325.786698 558.307273 l
325.959898 558.303433 l
326.219698 558.38728 l
326.999099 558.186414 l
327.4321 558.137648 l
327.8651 558.092849 l
328.038301 558.108479 l
328.211501 558.104946 l
328.990902 558.238771 l
329.250702 558.143795 l
329.597103 558.193069 l
330.030103 558.073878 l
330.203304 558.168999 l
331.675506 558.138217 l
332.108506 558.03011 l
332.801307 558.098696 l
333.061107 558.118438 l
333.234308 558.107802 l
333.580708 558.214277 l
334.360109 558.469146 l
334.533309 558.462228 l
334.87971 558.488584 l
335.22611 558.345936 l
335.745711 558.44383 l
336.871512 558.553828 l
337.131313 558.559723 l
337.650913 558.560299 l
338.083914 558.533653 l
338.430314 558.536767 l
338.949915 558.53968 l
339.902516 558.473649 l
341.547919 558.943155 l
341.721119 558.902439 l
341.894319 558.82948 l
342.84692 558.840008 l
343.539721 558.725925 l
343.886122 558.757483 l
344.232522 558.663649 l
345.444924 558.760973 l
346.310925 558.836034 l
347.176926 558.826544 l
347.523326 558.704024 l
348.129527 558.74883 l
348.302728 558.72242 l
348.562528 558.782742 l
349.255329 558.669139 l
350.20793 558.705997 l
350.46773 558.709717 l
351.593532 558.786549 l
352.459533 558.65479 l
352.805933 558.626251 l
353.065734 558.639596 l
353.585335 558.719273 l
353.758535 558.757506 l
354.451336 558.827618 l
355.403937 558.699399 l
355.577137 558.70663 l
356.269938 558.810055 l
356.529738 558.816092 l
357.39574 558.741625 l
359.127742 558.625487 l
359.474142 558.63902 l
359.820543 558.5474 l
360.773144 558.538907 l
361.206145 558.550175 l
362.505146 558.572255 l
362.938147 558.459461 l
364.237149 558.45076 l
364.670149 558.349018 l
365.44955 558.427848 l
365.709351 558.453343 l
366.142351 558.491906 l
366.921752 558.634712 l
367.527953 558.47233 l
367.787753 558.420752 l
370.732157 558.627321 l
371.078558 558.571335 l
372.117759 558.683242 l
372.290959 558.635199 l
372.98376 558.822456 l
373.330161 558.809458 l
374.282762 559.04092 l
376.014764 558.971761 l
376.274565 559.057246 l
377.400366 558.96889 l
377.573566 558.98766 l
377.833367 558.945471 l
379.478769 559.01231 l
379.651969 558.988001 l
379.998369 558.988237 l
380.34477 558.945908 l
380.77777 558.883989 l
381.124171 558.927574 l
381.383971 558.874532 l
382.682973 558.923071 l
382.856173 558.894812 l
383.202574 558.998809 l
384.328375 558.956058 l
384.501575 558.949299 l
385.454177 558.993274 l
385.713977 559.024118 l
386.926379 559.006529 l
387.186179 558.947639 l
388.918181 559.046533 l
389.870783 559.010019 l
390.217183 559.029145 l
390.823384 559.050726 l
391.169784 559.126196 l
392.122385 559.01634 l
392.382186 559.075172 l
392.641986 559.041894 l
395.066789 559.109201 l
395.32659 559.067582 l
395.932791 559.144777 l
396.885392 559.286736 l
397.578193 559.175505 l
398.357594 559.185141 l
398.617394 559.251361 l
401.994799 559.298764 l
403.640201 559.377699 l
403.900001 559.408557 l
404.766002 559.494122 l
405.025803 559.516876 l
405.372203 559.461188 l
406.065004 559.481741 l
406.238204 559.460428 l
406.498005 559.438173 l
406.844405 559.406497 l
407.364006 559.384145 l
407.883606 559.44123 l
408.143407 559.442272 l
408.316607 559.376511 l
408.922808 559.387173 l
409.355808 559.389291 l
409.529009 559.43243 l
409.788809 559.363888 l
410.221809 559.345302 l
413.772414 559.37453 l
414.551815 559.436245 l
415.504416 559.425424 l
415.850817 559.422188 l
416.024017 559.405729 l
416.543618 559.405222 l
417.236419 559.337969 l
417.756019 559.446358 l
418.18902 559.422527 l
418.53542 559.450813 l
419.228221 559.512989 l
420.267423 559.379441 l
421.133424 559.466289 l
421.479824 559.404382 l
421.826225 559.424685 l
422.172625 559.368443 l
422.519026 559.321276 l
423.558227 559.261208 l
423.818027 559.270609 l
425.203629 559.32415 l
425.89643 559.459383 l
426.242831 559.472164 l
426.762431 559.460762 l
427.195432 559.439862 l
427.541832 559.410733 l
427.715033 559.401063 l
427.974833 559.39852 l
428.321233 559.399883 l
429.187235 559.279977 l
431.005837 559.461867 l
431.179037 559.485955 l
431.612038 559.400857 l
433.43064 559.570198 l
433.69044 559.682711 l
434.729642 559.605187 l
435.509043 559.655441 l
437.847246 559.694386 l
438.193646 559.718624 l
439.406048 559.56491 l
439.839049 559.548937 l
440.61845 559.586108 l
441.830851 559.604899 l
443.476253 559.344451 l
443.736054 559.367473 l
443.995854 559.323277 l
445.208256 559.293613 l
445.641256 559.226794 l
446.680458 559.265418 l
447.026858 559.239802 l
447.892859 559.339388 l
448.67226 559.363581 l
449.105261 559.378814 l
449.711462 559.27735 l
450.317662 559.353344 l
451.616664 559.307689 l
451.963065 559.305317 l
452.569265 559.276308 l
453.348666 559.304734 l
453.868267 559.263653 l
454.994069 559.307755 l
455.167269 559.317891 l
455.94667 559.350899 l
456.29307 559.313463 l
456.639471 559.392512 l
457.159072 559.490621 l
457.678672 559.526254 l
458.458073 559.570435 l
463.39428 559.445581 l
463.65408 559.477118 l
464.000481 559.457493 l
464.520081 559.419264 l
466.944884 559.318301 l
467.724285 559.240217 l
468.070686 559.26049 l
473.786294 559.58828 l
474.825495 559.471122 l
475.345096 559.44994 l
475.518296 559.372465 l
476.470897 559.378059 l
477.336898 559.422839 l
478.3761 559.328483 l
478.8957 559.355082 l
479.0689 559.369077 l
479.328701 559.40778 l
479.934902 559.388843 l
480.281302 559.409187 l
480.714303 559.389537 l
481.060703 559.404064 l
482.099905 559.383068 l
484.697908 559.291109 l
485.304109 559.238947 l
488.075312 559.23181 l
488.594913 559.185148 l
490.846516 559.050513 l
491.799117 559.177577 l
492.145518 559.20578 l
492.665118 559.231629 l
494.223921 559.230811 l
495.003322 559.254402 l
495.349722 559.225156 l
495.955923 559.210841 l
496.388923 559.212363 l
496.995124 559.258059 l
497.428125 559.219411 l
498.207526 559.296428 l
498.640526 559.241584 l
501.67153 559.214732 l
503.663333 559.154406 l
504.702534 559.170365 l
505.395335 559.27764 l
505.655136 559.218883 l
506.088136 559.207849 l
508.339739 559.13817 l
508.68614 559.145195 l
513.362546 559.21736 l
513.968747 559.349981 l
514.661548 559.370883 l
514.921348 559.325356 l
515.181148 559.274321 l
515.527549 559.285967 l
515.873949 559.306329 l
517.692552 559.354221 l
518.038952 559.341018 l
518.818353 559.393408 l
519.944155 559.352317 l
522.109157 559.349846 l
523.92776 559.243479 l
524.27416 559.231426 l
525.659762 559.235577 l
526.006163 559.331724 l
526.265963 559.286315 l
527.997965 559.273725 l
528.950566 559.256365 l
529.816568 559.192215 l
530.249568 559.185636 l
531.028969 559.151248 l
531.54857 559.100329 l
531.80837 559.11543 l
532.760972 559.112788 l
535.618775 559.255805 l
535.878576 559.258991 l
537.783778 559.375951 l
538.476579 559.333762 l
545.837589 559.287783 l
546.097389 559.28396 l
547.396391 559.254728 l
547.915992 559.29367 l
548.435592 559.299736 l
549.647994 559.379444 l
552.159397 559.514417 l
552.505798 559.499047 l
553.025398 559.508887 l
555.277001 559.413256 l
557.355404 559.479692 l
557.788405 559.477834 l
558.308005 559.452258 l
558.741006 559.423641 l
563.244212 559.337245 l
566.968017 559.429794 l
567.227817 559.362784 l
568.093818 559.292196 l
569.39282 559.259671 l
569.73922 559.245938 l
570.518621 559.289233 l
585.500441 559.457805 l
586.193242 559.469322 l
586.453043 559.473365 l
586.886043 559.49038 l
588.531445 559.549437 l
590.696448 559.612819 l
591.82225 559.502557 l
592.16865 559.507078 l
595.459454 559.625673 l
596.152255 559.616305 l
597.711057 559.605624 l
598.577059 559.535424 l
599.096659 559.460428 l
599.44306 559.450346 l
600.135861 559.482547 l
601.521462 559.477359 l
602.041063 559.474809 l
602.993664 559.44177 l
604.552466 559.520959 l
611.480476 559.664133 l
611.913476 559.697186 l
612.519677 559.71532 l
614.77128 559.661165 l
615.11768 559.681131 l
616.763083 559.694054 l
618.754885 559.593664 l
619.014686 559.670299 l
624.037492 559.586322 l
624.730293 559.588448 l
629.406699 559.585176 l
629.6665 559.652302 l
631.831503 559.698524 l
632.697504 559.692868 l
634.516106 559.682182 l
635.122307 559.62829 l
638.066711 559.626078 l
639.019312 559.686817 l
651.056728 559.767553 l
651.836129 559.774129 l
654.693933 559.749876 l
655.040333 559.734242 l
661.275542 559.87689 l
661.708542 559.847802 l
662.141543 559.827558 l
662.747743 559.784051 l
663.613745 559.76215 l
664.133345 559.754695 l
664.393146 559.754553 l
664.739546 559.72152 l
681.713169 559.994508 l
681.886369 559.967788 l
682.75237 559.976555 l
683.791571 559.965082 l
684.311172 559.886068 l
685.523574 559.891548 l
688.554578 559.868975 l
689.333979 559.857853 l
690.979381 559.928502 l
691.239181 559.957261 l
711.157208 560.002522 l
712.109809 559.969303 l
714.361412 560.043222 l
715.054213 560.002381 l
716.266614 559.976851 l
720.42342 559.908756 l
720.85642 559.916397 l
722.068822 559.927619 l
722.588423 559.916285 l
723.194623 559.909218 l
724.926626 559.876416 l
725.879227 559.926377 l
726.658628 559.933108 l
727.178229 559.943908 l
729.083431 559.918877 l
729.689632 559.895183 l
730.122633 559.906005 l
730.642233 559.891132 l
731.508234 559.935666 l
732.807236 559.940387 l
736.184641 559.969504 l
736.790841 560.00459 l
738.522844 560.090677 l
738.955844 560.085272 l
741.467248 560.077005 l
742.073448 560.098646 l
782.169301 560.180355 l
783.554903 560.214726 l
784.074504 560.221341 l
785.719906 560.228829 l
786.499307 560.20339 l
788.66431 560.221057 l
789.01071 560.207156 l
789.443711 560.183819 l
792.474715 560.120155 l
792.907716 560.123069 l
793.254116 560.14858 l
800.874926 560.134329 l
801.307927 560.189148 l
804.425531 560.19249 l
804.858531 560.24349 l
805.637932 560.197563 l
807.976136 560.156382 l
809.275137 560.13162 l
810.747339 560.063149 l
811.61334 560.024655 l
813.345343 559.934568 l
814.644344 559.997867 l
816.116546 559.982646 l
817.155748 559.9579 l
818.108349 559.93728 l
821.052753 559.819886 l
822.178554 559.797422 l
823.044556 559.809476 l
830.838566 559.970081 l
832.310768 559.896975 l
833.95617 559.977398 l
842.702782 559.859172 l
846.599787 559.803927 l
847.379188 559.734411 l
848.591589 559.752577 l
849.977191 559.726879 l
851.362793 559.725435 l
851.882394 559.662498 l
852.748395 559.677934 l
876.736627 559.56209 l
881.499633 559.526486 l
885.483238 559.51967 l
886.349239 559.529361 l
889.466843 559.479695 l
897.260854 559.534421 l
898.646456 559.544077 l
899.339256 559.56136 l
906.353866 559.529051 l
906.960067 559.530343 l
909.55807 559.4309 l
928.350295 559.377029 l
929.216296 559.376232 l
932.1607 559.267374 l
932.5937 559.293734 l
933.286501 559.301217 l
935.624704 559.314279 l
936.923706 559.350727 l
937.443307 559.321143 l
944.544516 559.485448 l
946.016718 559.49073 l
949.740523 559.422822 l
950.866325 559.406962 l
952.771527 559.43485 l
953.117928 559.45158 l
954.330329 559.501753 l
957.188133 559.436992 l
957.880934 559.405827 l
958.920135 559.389911 l
959.699536 559.381746 l
961.951139 559.371024 l
963.683142 559.350289 l
964.722343 559.363752 l
970.697751 559.459903 l
972.169953 559.497383 l
972.862754 559.464468 l
975.027757 559.427229 l
976.066958 559.475368 l
978.664961 559.435887 l
979.357762 559.432828 l
993.127181 559.420882 l
993.646781 559.416878 l
994.685983 559.423398 l
995.465384 559.479693 l
996.158185 559.464227 l
997.197386 559.445915 l
999.102588 559.442354 l
1000.14179 559.485499 l
1000.40159 559.546927 l
1006.550198 559.611275 l
1007.5028 559.658858 l
1008.282201 559.621025 l
1008.628601 559.567901 l
1010.447203 559.629023 l
1011.746205 559.630246 l
1012.439006 559.654786 l
1014.604009 559.700211 l
1015.12361 559.743093 l
1019.886616 559.549415 l
1020.319616 559.580055 l
1021.185618 559.593855 l
1023.697021 559.498517 l
1024.822822 559.419533 l
1042.749046 559.261582 l
1044.134648 559.295561 l
1049.070855 559.294277 l
1049.850256 559.279535 l
1055.046262 559.309514 l
1057.471066 559.325587 l
1058.337067 559.305373 l
1060.67527 559.302355 l
1062.840273 559.295723 l
1062.840273 559.295723 l
stroke
grestore
0.839 0.153 0.157 setrgbcolor
gsave
952.506 510.602 153.63 72.943 clipbox
196.925727 517.848396 m
197.098928 522.196289 l
197.185528 521.668368 l
197.358728 515.783716 l
198.138129 480.687953 l
198.74433 445.314178 l
199.09073 422.994657 l
199.523731 400.360703 l
201.082533 329.866107 l
201.515533 314.260624 l
201.948534 301.202049 l
204.373337 236.868822 l
204.719738 229.062652 l
205.066138 220.778116 l
205.412538 214.150111 l
206.018739 202.826366 l
206.45174 195.439163 l
206.79814 189.197397 l
207.923942 170.360502 l
208.097142 168.892583 l
208.443543 163.273675 l
209.309544 153.350694 l
209.655944 149.766091 l
210.002345 144.585264 l
210.695145 137.899441 l
210.868346 136.976872 l
211.128146 134.123292 l
211.907547 129.161907 l
213.466349 118.992597 l
213.552949 118.83691 l
213.726149 117.705815 l
213.81275 117.487589 l
214.07255 116.208648 l
214.15915 116.281327 l
214.592151 115.288481 l
214.678751 115.355973 l
214.851951 114.261701 l
215.025151 113.944661 l
215.198351 114.177388 l
215.544752 113.421549 l
215.631352 113.572202 l
215.977752 112.60802 l
216.150953 111.811247 l
216.237553 112.015069 l
216.324153 111.64291 l
216.497353 111.893246 l
216.583953 111.973145 l
216.670553 111.678567 l
216.843754 112.386128 l
217.016954 111.807385 l
217.103554 111.740708 l
217.276754 112.444245 l
217.363354 111.927095 l
217.449954 111.983387 l
217.796355 113.067613 l
217.882955 112.943314 l
217.969555 113.320993 l
218.056155 113.186113 l
218.142755 113.280454 l
218.229355 113.544047 l
218.315956 113.280922 l
218.402556 113.671569 l
218.489156 113.541292 l
218.662356 114.24336 l
218.835556 114.249277 l
219.008756 114.20584 l
219.181957 114.282531 l
219.268557 114.186414 l
219.528357 114.754979 l
220.134558 117.798077 l
220.307758 118.455217 l
220.740759 119.938769 l
221.260359 122.014402 l
221.34696 121.76547 l
221.69336 122.948155 l
222.126361 124.627804 l
222.212961 124.680076 l
222.472761 125.742151 l
224.031563 134.070119 l
224.984164 140.14566 l
225.417165 142.701328 l
226.542966 150.339957 l
229.40077 169.987023 l
229.747171 172.75983 l
230.699772 179.692587 l
231.132773 182.852547 l
231.565773 186.289924 l
232.518374 192.893807 l
232.691575 194.199526 l
233.297775 198.639565 l
233.990576 202.843616 l
236.67518 222.232399 l
237.02158 224.403125 l
237.454581 227.420865 l
239.099983 237.974829 l
240.052584 244.300989 l
240.572185 247.744508 l
242.477388 259.189968 l
243.083588 262.759843 l
244.64239 272.03221 l
247.846595 289.677119 l
247.933195 289.87731 l
248.452795 292.483293 l
249.751797 299.456402 l
249.924997 300.361648 l
251.050799 305.549502 l
251.8302 309.068566 l
252.956001 314.395578 l
253.302402 316.237117 l
253.735402 318.490538 l
255.467405 325.964551 l
256.506606 330.28746 l
256.939607 332.131977 l
259.27781 342.316011 l
259.53761 343.304561 l
259.884011 344.846161 l
260.490211 347.366337 l
260.663412 347.912715 l
261.702613 352.00008 l
262.828414 355.966069 l
263.174815 357.286781 l
264.387217 361.950255 l
265.080017 364.135216 l
265.599618 366.100659 l
266.032619 367.664644 l
267.15842 371.136435 l
267.33162 371.689831 l
267.937821 373.732762 l
269.496623 378.293553 l
270.795625 382.452172 l
275.385431 395.900715 l
275.645231 396.512471 l
276.338032 398.508407 l
277.377234 401.076681 l
277.896834 402.697988 l
279.109236 405.952287 l
279.802037 407.927037 l
280.061837 408.477686 l
280.668038 410.033213 l
281.96704 413.170257 l
282.31344 413.95977 l
285.171244 420.810433 l
285.344444 421.169123 l
286.037245 422.657116 l
286.470246 423.653292 l
290.02085 431.275961 l
290.453851 432.086247 l
291.146652 433.461995 l
291.926053 434.899945 l
292.359054 435.895544 l
293.658055 438.285922 l
294.610656 440.361905 l
295.476658 442.015589 l
296.689059 444.212305 l
297.12206 444.967291 l
298.421062 447.422254 l
299.373663 449.030037 l
301.105665 451.848942 l
301.278865 451.95629 l
301.885066 452.860188 l
302.318067 453.560311 l
302.837667 454.428553 l
303.010868 454.658892 l
303.357268 455.290173 l
303.617068 455.664814 l
304.396469 456.958357 l
306.734673 460.486647 l
308.813075 463.186079 l
309.505876 464.236673 l
310.112077 465.239655 l
312.71008 468.627624 l
312.883281 468.773166 l
313.576082 469.489483 l
315.048284 471.162167 l
315.394684 471.577954 l
316.000885 472.325037 l
316.433885 472.604213 l
316.693686 472.98812 l
317.992687 474.669443 l
318.858689 475.725647 l
319.551489 476.374461 l
320.15769 477.333675 l
320.677291 477.993932 l
321.196892 478.468463 l
322.322693 479.85899 l
323.102094 480.675817 l
325.700098 483.602549 l
326.133098 483.966116 l
326.999099 484.722399 l
327.2589 484.950717 l
327.8651 485.547066 l
329.164102 487.036587 l
329.337302 487.116821 l
330.982705 488.751216 l
331.155905 488.823869 l
331.935306 489.427975 l
332.974507 490.227299 l
333.320908 490.618307 l
333.753908 490.926563 l
334.013709 491.118379 l
335.39931 492.611777 l
335.832311 492.910999 l
336.265312 493.3112 l
336.784912 493.643112 l
338.083914 494.893884 l
338.343714 495.046092 l
339.382916 495.941395 l
339.815916 496.217016 l
340.162317 496.445358 l
341.288118 497.248009 l
341.461318 497.383211 l
341.894319 497.746151 l
343.193321 498.818975 l
343.539721 498.974793 l
344.405722 499.650537 l
344.665523 499.819777 l
345.271724 500.362849 l
345.704724 500.714342 l
346.310925 501.261239 l
346.484125 501.382158 l
346.830526 501.588544 l
347.176926 501.807483 l
347.783127 502.435546 l
348.822328 503.015848 l
349.168729 503.287759 l
349.428529 503.406504 l
349.86153 503.648488 l
351.939932 505.014638 l
353.238934 505.744915 l
356.096738 507.533017 l
356.962739 508.12272 l
357.74214 508.643429 l
358.08854 508.803511 l
358.521541 509.121674 l
359.127742 509.512397 l
359.820543 509.917686 l
362.938147 511.617499 l
363.197947 511.806422 l
364.150548 512.281623 l
364.496949 512.374992 l
364.92995 512.619501 l
365.53615 512.89463 l
366.055751 513.171811 l
366.488752 513.356943 l
367.008352 513.494647 l
367.527953 513.853474 l
367.787753 513.911303 l
368.047554 514.158222 l
369.692956 515.187083 l
370.039356 515.368229 l
370.645557 515.796536 l
371.078558 515.995632 l
371.424958 516.101321 l
372.117759 516.499925 l
372.55076 516.732445 l
372.89716 516.893206 l
373.243561 517.03339 l
373.676561 517.235487 l
374.109562 517.444948 l
374.455962 517.578095 l
374.802363 517.740036 l
374.975563 517.820598 l
375.754964 518.178569 l
376.447765 518.559298 l
376.794165 518.624615 l
377.573566 518.885288 l
378.006567 519.034719 l
379.132368 519.557804 l
379.478769 519.721091 l
379.825169 519.848913 l
380.17157 519.997408 l
384.241775 521.615163 l
384.674776 521.768948 l
385.454177 522.154804 l
385.713977 522.288827 l
386.666578 522.660058 l
386.926379 522.764934 l
387.87898 523.13467 l
388.31198 523.274761 l
390.823384 524.33863 l
391.083184 524.42773 l
392.468786 524.760681 l
392.815186 524.86471 l
393.161587 524.968998 l
394.200788 525.315228 l
394.460589 525.517924 l
394.806989 525.542652 l
395.58639 525.809677 l
396.105991 525.91237 l
396.365791 526.031602 l
397.058592 526.163012 l
398.963795 526.637153 l
400.176196 526.975087 l
400.522597 527.065772 l
404.679402 528.604587 l
404.852602 528.592199 l
405.112403 528.712094 l
405.458803 528.764882 l
406.757805 529.179956 l
407.277406 529.316947 l
407.710406 529.493671 l
408.316607 529.568686 l
410.39501 530.070885 l
411.261011 530.422997 l
411.867212 530.621047 l
412.473412 530.85406 l
413.426014 531.096066 l
413.945614 531.265438 l
414.292015 531.316878 l
414.811615 531.461085 l
415.331216 531.592539 l
419.314821 532.740734 l
419.661222 532.801153 l
419.921022 532.885231 l
421.306624 533.322455 l
421.566424 533.377005 l
425.376829 534.229669 l
425.72323 534.216936 l
425.98303 534.325985 l
427.108832 534.607598 l
427.368632 534.683014 l
427.801633 534.76604 l
428.581034 534.987125 l
431.092437 535.597493 l
431.438837 535.701465 l
431.871838 535.875963 l
433.34404 536.135511 l
434.989442 536.614637 l
438.366847 537.099238 l
438.626647 537.177874 l
439.752448 537.425701 l
440.098849 537.441008 l
440.87825 537.546245 l
441.22465 537.671922 l
441.917451 537.838695 l
442.350452 537.982144 l
442.870053 538.074146 l
444.169054 538.328616 l
444.688655 538.353452 l
445.381456 538.493225 l
449.018661 539.170725 l
449.278461 539.159443 l
450.664063 539.341855 l
451.443464 539.412812 l
452.482665 539.553082 l
452.829066 539.588845 l
454.561068 539.855999 l
454.907469 539.909059 l
455.340469 539.977209 l
456.37967 540.159268 l
456.726071 540.168774 l
462.614879 540.920722 l
463.65408 541.018288 l
464.000481 541.04428 l
466.858284 541.383654 l
469.109887 541.559256 l
469.889288 541.730406 l
473.786294 542.062078 l
474.305894 542.092477 l
475.085295 542.174079 l
476.470897 542.307256 l
477.423498 542.395399 l
481.407104 543.015862 l
482.359705 543.094832 l
482.965906 543.150685 l
484.005107 543.159462 l
485.130909 543.237755 l
485.823709 543.271867 l
486.42991 543.3636 l
487.295911 543.523128 l
487.642312 543.530984 l
493.011519 544.048219 l
493.184719 544.070433 l
493.53112 544.18871 l
496.042523 544.36749 l
496.648724 544.445984 l
497.687925 544.40839 l
499.246727 544.538168 l
500.026128 544.574279 l
501.15193 544.672878 l
501.931331 544.794532 l
502.364331 544.832768 l
503.057132 544.903362 l
503.576733 544.901882 l
504.182934 544.969494 l
513.882147 546.304325 l
514.315147 546.258879 l
517.346151 546.40586 l
518.645153 546.412633 l
519.944155 546.52112 l
520.550355 546.629279 l
522.975159 546.84003 l
523.84116 546.889846 l
524.27416 546.91319 l
524.793761 546.890489 l
525.313362 546.955936 l
525.659762 547.054811 l
526.179363 547.067415 l
526.958764 547.289583 l
527.651565 547.341807 l
529.123767 547.464698 l
529.556767 547.462785 l
530.076368 547.501566 l
531.28877 547.55554 l
531.98157 547.685155 l
532.587771 547.731594 l
533.626973 547.723117 l
534.146573 547.744494 l
535.185775 547.813807 l
535.532175 547.798598 l
535.965176 547.803528 l
544.278787 548.461668 l
547.569591 548.698916 l
548.348992 548.747968 l
549.388194 548.847171 l
550.167595 548.931343 l
552.072797 549.066054 l
552.678998 549.127168 l
553.718199 549.146636 l
554.2378 549.174748 l
556.056402 549.251993 l
556.402803 549.269418 l
557.528604 549.355681 l
557.961605 549.383568 l
560.732809 549.499914 l
562.464811 549.6194 l
563.330812 549.643742 l
563.937013 549.732464 l
565.928815 549.871265 l
566.361816 549.90687 l
566.794817 549.944638 l
568.353619 550.025672 l
568.786619 550.038639 l
571.904223 550.185127 l
572.337224 550.164771 l
574.415627 550.269437 l
575.368228 550.270769 l
576.75383 550.180392 l
577.18683 550.212204 l
577.706431 550.209404 l
578.399232 550.218207 l
578.918833 550.232374 l
579.265233 550.250559 l
579.698234 550.292054 l
580.737435 550.271736 l
581.343636 550.291382 l
582.642638 550.361943 l
583.162238 550.395179 l
594.247053 550.727322 l
594.939854 550.753028 l
599.87606 550.812499 l
600.655461 550.952245 l
604.379266 551.090181 l
606.457669 551.182895 l
607.15047 551.209702 l
608.622672 551.297646 l
616.676483 551.56237 l
618.148684 551.732213 l
618.668285 551.755131 l
632.264503 552.155364 l
632.697504 552.151176 l
635.035707 552.196905 l
636.074908 552.217609 l
637.46051 552.352218 l
638.413111 552.439842 l
640.751314 552.47807 l
641.444115 552.506337 l
643.176118 552.587311 l
644.215319 552.621572 l
645.25452 552.657929 l
645.774121 552.697473 l
654.174332 553.094359 l
655.646534 553.113805 l
656.599135 553.101361 l
660.755941 553.244413 l
664.912746 553.342765 l
669.329352 553.490826 l
672.187156 553.577629 l
673.139757 553.604007 l
674.265559 553.670189 l
690.19998 553.791386 l
690.54638 553.821979 l
691.239181 553.845257 l
692.451583 553.801052 l
692.884583 553.822427 l
694.096985 553.842083 l
694.876386 553.887913 l
702.756996 554.027484 l
703.363197 554.069441 l
704.229198 554.055774 l
709.685006 554.276827 l
710.464407 554.23614 l
711.330408 554.175371 l
713.23561 554.231412 l
714.707812 554.281853 l
716.439814 554.279859 l
717.046015 554.281663 l
719.124418 554.281617 l
720.25022 554.300722 l
744.151851 554.674067 l
744.844652 554.671501 l
746.749855 554.749808 l
747.789056 554.682631 l
756.016067 554.627253 l
756.708868 554.670515 l
757.315069 554.693566 l
765.97508 554.756614 l
767.014281 554.79994 l
767.880283 554.840819 l
769.872085 554.864441 l
770.391686 554.841056 l
770.824686 554.848788 l
775.414493 554.823618 l
776.626894 554.834505 l
777.233095 554.839681 l
778.358896 554.810082 l
778.791897 554.825432 l
779.917698 554.820646 l
782.602302 554.845137 l
783.121903 554.859234 l
783.728104 554.861769 l
785.113705 554.893582 l
788.231309 554.900315 l
789.183911 554.95417 l
794.120117 555.07178 l
795.85212 555.090991 l
797.237721 555.126217 l
798.276923 555.098117 l
800.441926 555.04795 l
801.048126 555.065828 l
804.858531 555.132591 l
805.291532 555.154656 l
807.629735 555.191215 l
812.998942 555.276506 l
813.345343 555.241759 l
815.163945 555.22107 l
818.54135 555.207281 l
820.446552 555.222641 l
823.564156 555.341878 l
829.193164 555.410697 l
830.925166 555.502671 l
836.554173 555.506099 l
837.333574 555.535797 l
838.112975 555.500773 l
839.065577 555.467095 l
839.931578 555.479043 l
842.789382 555.480637 l
843.655383 555.4672 l
845.473985 555.448783 l
846.426586 555.473606 l
849.45759 555.413148 l
851.189593 555.45027 l
852.488594 555.453117 l
856.039199 555.561037 l
856.9918 555.54463 l
874.311823 555.669738 l
875.351025 555.630537 l
877.602628 555.709284 l
878.555229 555.650764 l
879.68103 555.695441 l
880.287231 555.69335 l
880.893432 555.70886 l
881.672833 555.680804 l
884.011036 555.651943 l
887.301841 555.691913 l
888.427642 555.641039 l
888.774042 555.660937 l
889.466843 555.678165 l
892.064847 555.760361 l
893.450449 555.745526 l
896.135052 555.696453 l
896.914453 555.73164 l
897.607254 555.752759 l
898.386655 555.732593 l
909.47147 555.857216 l
911.030272 555.915632 l
911.982873 555.896836 l
913.541675 555.875466 l
914.321076 555.88384 l
916.053079 555.947761 l
921.682086 555.945016 l
923.673889 555.974749 l
932.2473 556.116621 l
934.585503 556.150876 l
936.057705 556.087448 l
939.95471 556.07169 l
940.820711 556.063073 l
941.513512 556.071452 l
944.717716 556.079368 l
946.709519 556.045818 l
959.353136 556.176904 l
960.305737 556.154832 l
960.825338 556.168221 l
963.250141 556.114222 l
964.462543 556.133663 l
981.089765 556.437383 l
982.215566 556.438877 l
984.034168 556.406151 l
990.096176 556.416321 l
991.221978 556.446447 l
1008.888401 556.438626 l
1010.274003 556.489218 l
1011.140004 556.503856 l
1012.265806 556.525171 l
1016.422611 556.591335 l
1017.288612 556.630277 l
1018.501014 556.586482 l
1019.886616 556.544148 l
1022.65782 556.515225 l
1025.429023 556.547875 l
1027.247626 556.605416 l
1031.577631 556.577584 l
1032.357032 556.638961 l
1034.868436 556.669575 l
1039.285042 556.740435 l
1041.363444 556.758539 l
1047.079052 556.757119 l
1048.724454 556.754019 l
1054.526662 556.762519 l
1055.219463 556.719827 l
1056.518464 556.732407 l
1057.817466 556.713515 l
1062.840273 556.655048 l
1062.840273 556.655048 l
stroke
grestore
0.800 setlinewidth
0 setlinejoin
0.000 setgray
gsave
153.63 72.9432 m
153.63 583.5456 l
stroke
grestore
gsave
1106.136 72.9432 m
1106.136 583.5456 l
stroke
grestore
gsave
153.63 72.9432 m
1106.136 72.9432 l
stroke
grestore
gsave
153.63 583.5456 m
1106.136 583.5456 l
stroke
grestore
1.000 setlinewidth
0 setlinecap
0.800 setgray
gsave
1095.136 570.5456 m
1099.136 570.5456 l
1100.469333 570.5456 1101.136 571.212267 1101.136 572.5456 c
1101.136 576.5456 l
1101.136 577.878933 1100.469333 578.5456 1099.136 578.5456 c
1095.136 578.5456 l
1093.802667 578.5456 1093.136 577.878933 1093.136 576.5456 c
1093.136 572.5456 l
1093.136 571.212267 1093.802667 570.5456 1095.136 570.5456 c
cl
gsave
1.000 setgray
fill
grestore
stroke
grestore

end
showpage
