\relax 
\providecommand\hyper@newdestlabel[2]{}
\providecommand\HyperFirstAtBeginDocument{\AtBeginDocument}
\HyperFirstAtBeginDocument{\ifx\hyper@anchor\@undefined
\global\let\oldcontentsline\contentsline
\gdef\contentsline#1#2#3#4{\oldcontentsline{#1}{#2}{#3}}
\global\let\oldnewlabel\newlabel
\gdef\newlabel#1#2{\newlabelxx{#1}#2}
\gdef\newlabelxx#1#2#3#4#5#6{\oldnewlabel{#1}{{#2}{#3}}}
\AtEndDocument{\ifx\hyper@anchor\@undefined
\let\contentsline\oldcontentsline
\let\newlabel\oldnewlabel
\fi}
\fi}
\global\let\hyper@last\relax 
\gdef\HyperFirstAtBeginDocument#1{#1}
\providecommand\HyField@AuxAddToFields[1]{}
\providecommand\HyField@AuxAddToCoFields[2]{}
\citation{weng2020provably}
\citation{sutton2018reinforcement}
\citation{smith2006optimizerscurse}
\citation{hasselt2010double}
\@writefile{toc}{\contentsline {section}{\numberline {1}Introduction}{1}{section.1}\protected@file@percent }
\@writefile{toc}{\contentsline {section}{\numberline {2}Related Work}{1}{section.2}\protected@file@percent }
\@writefile{toc}{\contentsline {subsection}{\numberline {2.1}Q-learning}{1}{subsection.2.1}\protected@file@percent }
\@writefile{toc}{\contentsline {subsection}{\numberline {2.2}Double Q-learning}{1}{subsection.2.2}\protected@file@percent }
\citation{d2016estimating}
\citation{sutton2018reinforcement}
\@writefile{loa}{\contentsline {algorithm}{\numberline {1}{\ignorespaces Q-learning}}{2}{algorithm.1}\protected@file@percent }
\newlabel{alg:q-learning}{{1}{2}{Q-learning}{algorithm.1}{}}
\@writefile{toc}{\contentsline {subsection}{\numberline {2.3}Weighted Q-learning}{2}{subsection.2.3}\protected@file@percent }
\@writefile{toc}{\contentsline {section}{\numberline {3}Experiments/Results/Discussion}{2}{section.3}\protected@file@percent }
\@writefile{toc}{\contentsline {subsection}{\numberline {3.1}Environments}{2}{subsection.3.1}\protected@file@percent }
\@writefile{toc}{\contentsline {subsubsection}{\numberline {3.1.1}Mini}{2}{subsubsection.3.1.1}\protected@file@percent }
\@writefile{toc}{\contentsline {subsubsection}{\numberline {3.1.2}Gridworld}{2}{subsubsection.3.1.2}\protected@file@percent }
\@writefile{lof}{\contentsline {figure}{\numberline {1}{\ignorespaces Gridworld}}{2}{figure.1}\protected@file@percent }
\newlabel{fig:gridworld}{{1}{2}{Gridworld}{figure.1}{}}
\@writefile{toc}{\contentsline {subsection}{\numberline {3.2}Results}{2}{subsection.3.2}\protected@file@percent }
\citation{d2016estimating}
\bibstyle{unsrtnat}
\bibdata{ref.bib}
\newlabel{fig:plots}{{3.2}{3}{Results}{subsection.3.2}{}}
\@writefile{lof}{\contentsline {figure}{\numberline {2}{\ignorespaces The value $\qopname  \relax m{max}_a\{Q(S,a)\}$ over number of steps. Q-learning in green, Double Q-learning in orange and Weighted Q-learning in red. In blue $\qopname  \relax m{max}_{a}\{Q^*(S,a)\}$. From left to right and top to bottom: Bernoulli, $\mathcal  {N}(-1,5)$ and $\mathcal  {N}(-1,1)$.}}{3}{figure.2}\protected@file@percent }
\@writefile{toc}{\contentsline {section}{\numberline {4}Future Work}{3}{section.4}\protected@file@percent }
\gdef \@abspage@last{3}
